Total moves : 4
1 1 1 3 1 
1 2 2 1 1 
3 1 3 1 1 
2 1 1 1 1 
1 1 1 1 1 
=====================
Color : 3
3 3 3 3 1 
3 2 2 1 1 
3 1 3 1 1 
2 1 1 1 1 
1 1 1 1 1 
========================
Color : 2
2 2 2 2 1 
2 2 2 1 1 
2 1 3 1 1 
2 1 1 1 1 
1 1 1 1 1 
========================
Color : 1
1 1 1 1 1 
1 1 1 1 1 
1 1 3 1 1 
1 1 1 1 1 
1 1 1 1 1 
========================
Color : 3
3 3 3 3 3 
3 3 3 3 3 
3 3 3 3 3 
3 3 3 3 3 
3 3 3 3 3 
========================
