Total moves : 11
1 2 3 4 2 3 
3 3 4 5 2 1 
4 3 3 1 2 3 
5 4 3 6 2 1 
3 2 4 3 4 3 
2 3 4 1 5 6 
=====================
Color : 3
3 2 3 4 2 3 
3 3 4 5 2 1 
4 3 3 1 2 3 
5 4 3 6 2 1 
3 2 4 3 4 3 
2 3 4 1 5 6 
========================
Color : 4
4 2 3 4 2 3 
4 4 4 5 2 1 
4 4 4 1 2 3 
5 4 4 6 2 1 
3 2 4 3 4 3 
2 3 4 1 5 6 
========================
Color : 6
6 2 3 4 2 3 
6 6 6 5 2 1 
6 6 6 1 2 3 
5 6 6 6 2 1 
3 2 6 3 4 3 
2 3 6 1 5 6 
========================
Color : 3
3 2 3 4 2 3 
3 3 3 5 2 1 
3 3 3 1 2 3 
5 3 3 3 2 1 
3 2 3 3 4 3 
2 3 3 1 5 6 
========================
Color : 1
1 2 1 4 2 3 
1 1 1 5 2 1 
1 1 1 1 2 3 
5 1 1 1 2 1 
3 2 1 1 4 3 
2 1 1 1 5 6 
========================
Color : 2
2 2 2 4 2 3 
2 2 2 5 2 1 
2 2 2 2 2 3 
5 2 2 2 2 1 
3 2 2 2 4 3 
2 2 2 2 5 6 
========================
Color : 4
4 4 4 4 4 3 
4 4 4 5 4 1 
4 4 4 4 4 3 
5 4 4 4 4 1 
3 4 4 4 4 3 
4 4 4 4 5 6 
========================
Color : 5
5 5 5 5 5 3 
5 5 5 5 5 1 
5 5 5 5 5 3 
5 5 5 5 5 1 
3 5 5 5 5 3 
5 5 5 5 5 6 
========================
Color : 3
3 3 3 3 3 3 
3 3 3 3 3 1 
3 3 3 3 3 3 
3 3 3 3 3 1 
3 3 3 3 3 3 
3 3 3 3 3 6 
========================
Color : 1
1 1 1 1 1 1 
1 1 1 1 1 1 
1 1 1 1 1 1 
1 1 1 1 1 1 
1 1 1 1 1 1 
1 1 1 1 1 6 
========================
Color : 6
6 6 6 6 6 6 
6 6 6 6 6 6 
6 6 6 6 6 6 
6 6 6 6 6 6 
6 6 6 6 6 6 
6 6 6 6 6 6 
========================
